<?xml version="1.0" encoding="iso-8859-1"?>
<svg version="1.1" id="Layer_1" xmlns="http://www.w3.org/2000/svg" xmlns:xlink="http://www.w3.org/1999/xlink" x="0px" y="0px"
	 viewBox="0 0 512 512" style="enable-background:new 0 0 512 512;" xml:space="preserve">
<circle style="fill:#7AB9E8;" cx="256" cy="256" r="256"/>
<path style="fill:#579ADF;" d="M256,0v512c141.385,0,256-114.615,256-256S397.385,0,256,0z"/>
<polygon style="fill:#F2F2F4;" points="384,228.571 283.429,228.571 283.429,128 228.571,128 228.571,228.571 128,228.571 
	128,283.429 228.571,283.429 228.571,384 283.429,384 283.429,283.429 384,283.429 "/>
<rect x="283.429" y="228.571" style="fill:#DFDFE1;" width="100.571" height="54.857"/>
</svg>