<?xml version="1.0" encoding="iso-8859-1"?>
<svg version="1.1" id="Layer_1" xmlns="http://www.w3.org/2000/svg" xmlns:xlink="http://www.w3.org/1999/xlink" x="0px" y="0px"
	 viewBox="0 0 512 512" style="enable-background:new 0 0 512 512;" xml:space="preserve">
<rect x="24.774" y="24.774" style="fill:#B4D8F1;" width="445.935" height="346.839"/>
<polygon style="fill:#98C8ED;" points="470.71,371.613 24.774,371.613 470.71,24.774 "/>
<rect x="231.226" y="371.613" style="fill:#424144;" width="49.548" height="115.613"/>
<path style="fill:#88888F;" d="M512,396.387H0V0h512V396.387z M49.548,346.839h412.903V49.548H49.548V346.839z M371.613,462.452
	H140.387V512h231.226V462.452z"/>
<g>
	<rect x="140.387" y="231.226" style="fill:#F2F2F4;" width="231.226" height="49.548"/>
	<rect x="140.387" y="115.613" style="fill:#F2F2F4;" width="231.226" height="49.548"/>
</g>
<g>
	<polygon style="fill:#56545A;" points="256,0 256,49.548 462.452,49.548 462.452,346.839 256,346.839 256,396.387 512,396.387 
		512,0 	"/>
	<rect x="256" y="462.452" style="fill:#56545A;" width="115.613" height="49.548"/>
</g>
</svg>